module godoros.bitbucket.io/huarongdao

go 1.17

require (
	github.com/golang-collections/collections v0.0.0-20130729185459-604e922904d3
	github.com/olekukonko/tablewriter v0.0.5
)

require github.com/mattn/go-runewidth v0.0.9 // indirect
